…
The tab-delimited text column names are also renamed. Please notice that
well names need to be three characters, so `A1` becomes `A01`. This
conversion is also incorporated in the script since the plate reader
outputs two and three digit well names. This is annoying when sorting
data and plotting data.

The imported and processed data looks like this in R:

``` r
mito_express_data
#> # A tibble: 610 × 5
#>    time     time_sec  temp well  fluorescence
#>    <Period>    <dbl> <dbl> <chr>        <dbl>
#>  1 0S              0    27 C08         42318.
#>  2 0S              0    27 C09         50590.
#>  3 0S              0    27 D08         27063.
#>  4 0S              0    27 D09         27544.
#>  5 0S              0    27 E08         13598.
#>  6 0S              0    27 E09         12513.
#>  7 0S              0    27 F08          9162.
#>  8 0S              0    27 F09          8408.
#>  9 0S              0    27 G08          7690.
#> 10 0S              0    27 G09          8232.
#> # … with 600 more rows
```
…
